{
    "url": "https://api.anodot.com",
    "token": "<YOUR API TOKEN>",
    "log": "error",
    "showStats": false,
    "sendStats": true,
    "plainPort": 2003,
    "picklePort": 2004,
    "flushInterval": 5000,
    "metricBlacklist": "",
    "metricWhitelist": "",
    "metricRewrite": [],
    "metricPrefix": "",
    "metricCounter":"",
    "maxConnections": 100
}
